%YAML 1.1
%TAG !u! tag:unity3d.com,2011:
--- !u!74 &7400000
AnimationClip:
  m_ObjectHideFlags: 0
  m_CorrespondingSourceObject: {fileID: 0}
  m_PrefabInstance: {fileID: 0}
  m_PrefabAsset: {fileID: 0}
  m_Name: SantaDeath
  serializedVersion: 6
  m_Legacy: 0
  m_Compressed: 0
  m_UseHighQualityCurve: 1
  m_RotationCurves: []
  m_CompressedRotationCurves: []
  m_EulerCurves: []
  m_PositionCurves: []
  m_ScaleCurves: []
  m_FloatCurves: []
  m_PPtrCurves:
  - curve:
    - time: 0
      value: {fileID: 21300000, guid: 1eaa5cfdb19de5d4fb470dcc0f762c3c, type: 3}
    - time: 0.033333335
      value: {fileID: 21300000, guid: a737e9084b845ee44890eb3eb0de838c, type: 3}
    - time: 0.1
      value: {fileID: 21300000, guid: 5994bf8e76be6014e9025787f287f8ab, type: 3}
    - time: 0.15
      value: {fileID: 21300000, guid: bd5a3832170ddd744bd508648f446a8f, type: 3}
    - time: 0.21666667
      value: {fileID: 21300000, guid: f1f7d10aa42905747b494b08ef9b0953, type: 3}
    - time: 0.25
      value: {fileID: 21300000, guid: 04d66bb1882414a4fbdf0ae2a389864d, type: 3}
    - time: 0.31666666
      value: {fileID: 21300000, guid: c273b96808a69314e93221b244cf7972, type: 3}
    - time: 0.35
      value: {fileID: 21300000, guid: 1abd486b046a4994284572f92cfe6e6b, type: 3}
    - time: 0.41666666
      value: {fileID: 21300000, guid: 585b08ddc22ae724795ae52f37b34987, type: 3}
    - time: 0.46666667
      value: {fileID: 21300000, guid: acaa6a4676872a44c9b952a0cdb5ea7d, type: 3}
    - time: 0.51666665
      value: {fileID: 21300000, guid: 1f931c347cedbea42b2cad70fae3f257, type: 3}
    - time: 0.56666666
      value: {fileID: 21300000, guid: dafbb80c185bf7542b51d6bdf42d340e, type: 3}
    - time: 0.6333333
      value: {fileID: 21300000, guid: 89455121386d8494cbeb752cdbf9d8a2, type: 3}
    - time: 0.6666667
      value: {fileID: 21300000, guid: 730bf5b4bd2acac47b2064dc3a13d918, type: 3}
    - time: 0.73333335
      value: {fileID: 21300000, guid: a2958e43fe72fdd428978d779ea6e513, type: 3}
    - time: 0.76666665
      value: {fileID: 21300000, guid: 7d5a642194600584fb7c6a28e75fa1e1, type: 3}
    - time: 0.8333333
      value: {fileID: 21300000, guid: e88c231f941b847468e36f6680d00852, type: 3}
    attribute: m_Sprite
    path: 
    classID: 212
    script: {fileID: 0}
  m_SampleRate: 60
  m_WrapMode: 0
  m_Bounds:
    m_Center: {x: 0, y: 0, z: 0}
    m_Extent: {x: 0, y: 0, z: 0}
  m_ClipBindingConstant:
    genericBindings:
    - serializedVersion: 2
      path: 0
      attribute: 0
      script: {fileID: 0}
      typeID: 212
      customType: 23
      isPPtrCurve: 1
    pptrCurveMapping:
    - {fileID: 21300000, guid: 1eaa5cfdb19de5d4fb470dcc0f762c3c, type: 3}
    - {fileID: 21300000, guid: a737e9084b845ee44890eb3eb0de838c, type: 3}
    - {fileID: 21300000, guid: 5994bf8e76be6014e9025787f287f8ab, type: 3}
    - {fileID: 21300000, guid: bd5a3832170ddd744bd508648f446a8f, type: 3}
    - {fileID: 21300000, guid: f1f7d10aa42905747b494b08ef9b0953, type: 3}
    - {fileID: 21300000, guid: 04d66bb1882414a4fbdf0ae2a389864d, type: 3}
    - {fileID: 21300000, guid: c273b96808a69314e93221b244cf7972, type: 3}
    - {fileID: 21300000, guid: 1abd486b046a4994284572f92cfe6e6b, type: 3}
    - {fileID: 21300000, guid: 585b08ddc22ae724795ae52f37b34987, type: 3}
    - {fileID: 21300000, guid: acaa6a4676872a44c9b952a0cdb5ea7d, type: 3}
    - {fileID: 21300000, guid: 1f931c347cedbea42b2cad70fae3f257, type: 3}
    - {fileID: 21300000, guid: dafbb80c185bf7542b51d6bdf42d340e, type: 3}
    - {fileID: 21300000, guid: 89455121386d8494cbeb752cdbf9d8a2, type: 3}
    - {fileID: 21300000, guid: 730bf5b4bd2acac47b2064dc3a13d918, type: 3}
    - {fileID: 21300000, guid: a2958e43fe72fdd428978d779ea6e513, type: 3}
    - {fileID: 21300000, guid: 7d5a642194600584fb7c6a28e75fa1e1, type: 3}
    - {fileID: 21300000, guid: e88c231f941b847468e36f6680d00852, type: 3}
  m_AnimationClipSettings:
    serializedVersion: 2
    m_AdditiveReferencePoseClip: {fileID: 0}
    m_AdditiveReferencePoseTime: 0
    m_StartTime: 0
    m_StopTime: 0.84999996
    m_OrientationOffsetY: 0
    m_Level: 0
    m_CycleOffset: 0
    m_HasAdditiveReferencePose: 0
    m_LoopTime: 0
    m_LoopBlend: 0
    m_LoopBlendOrientation: 0
    m_LoopBlendPositionY: 0
    m_LoopBlendPositionXZ: 0
    m_KeepOriginalOrientation: 0
    m_KeepOriginalPositionY: 1
    m_KeepOriginalPositionXZ: 0
    m_HeightFromFeet: 0
    m_Mirror: 0
  m_EditorCurves: []
  m_EulerEditorCurves: []
  m_HasGenericRootTransform: 0
  m_HasMotionFloatCurves: 0
  m_Events: []
